{
  "operatingSystems" : [
    {
      "id":"os:windows:xp:32bit", 
      "puids" : [ {"puid": "x-fmt/411"}, {"puid": "fmt/899"}],
      "label" : "Windows XP (32bit)",
      "kvm_available" : true,
      "qid" : "",
      "disk" : "40G",
      "template" : "qemu-x86",
      "template_params" : 
      {
        "vga" : "cirrus",
        "cpu" : "2",
        "net" : "rtl8139",
        "audio" : "ac97",
        "memory" : "1024",
        "pointer" : "usb"
      }
    },
    {
      "id":"os:windows:xp:64bit", 
      "puids" : [ {"puid": "x-fmt/411"}, {"puid": "fmt/899"}, {"puid": "fmt/900"}],
      "label" : "Windows XP (64bit)",
      "kvm_available" : true,
      "qid" : "",
      "disk" : "40G",
      "template" : "qemu-x86",
      "template_params" : 
      {
        "vga" : "cirrus",
        "cpu" : "2",
        "net" : "rtl8139",
        "audio" : "ac97",
        "memory" : "1024",
        "pointer" : "usb"
      }
    },
    {
      "id":"os:windows:95", 
      "puids": [{"puid": "x-fmt/410"}, {"puid": "x-fmt/409"}, {"puid": "x-fmt/411"}, {"puid": "fmt/899"}],
      "label" : "Windows 95",
      "kvm_available" : false,
      "qid" : "",
      "disk" : "12G",
      "template" : "qemu-x86",
      "template_params" : 
      {
        "vga" : "cirrus",
        "cpu" : "1",
        "net" : "rtl8139",
        "audio" : "sb16",
        "memory" : "64",
        "pointer" : "lock"
      }
    },
    {
      "id":"os:windows:98", 
      "puids": [{"puid": "x-fmt/410"}, {"puid": "x-fmt/409"}, {"puid": "x-fmt/411"}, {"puid": "fmt/899"}],
      "label" : "Windows 98",
      "kvm_available" : false,
      "qid" : "",
      "disk" : "12G",
      "template" : "qemu-x86",
      "template_params" : 
      {
        "vga" : "cirrus",
        "cpu" : "1",
        "net" : "rtl8139",
        "audio" : "sb16",
        "memory" : "128",
        "pointer" : "usb"
      }
    },
    {
      "id":"os:windows:2000", 
      "puids": [{"puid": "x-fmt/410"}, {"puid": "x-fmt/409"}, {"puid": "x-fmt/411"}, {"puid": "fmt/899"}],
      "label" : "Windows 2000",
      "kvm_available" : true,
      "qid" : "",
      "disk" : "40G",
      "template" : "qemu-x86",
      "template_params" : 
      {
        "vga" : "cirrus",
        "cpu" : "2",
        "net" : "rtl8139",
        "audio" : "sb16",
        "memory" : "128",
        "pointer" : "usb"
      }
    },
    {
      "id":"os:windows:server:2008", 
      "puids" : [ {"puid": "x-fmt/411"}, {"puid": "fmt/899"}, {"puid": "fmt/900"}],
      "label" : "Windows Server 2008",
      "kvm_available" : true,
      "qid" : "",
      "disk" : "120G",
      "template" : "qemu-x86",
      "template_params" : 
      {
        "vga" : "std",
        "cpu" : "4",
        "net" : "e1000",
        "audio" : "hda",
        "memory" : "4096",
        "pointer" : "usb",
        "kvm_enabled" : true
      }
    },
    {
        "id":"os:windows:vista", 
        "puids" : [ {"puid": "x-fmt/411"}, {"puid": "fmt/899"}, {"puid": "fmt/900"}],
        "label" : "Windows Vista",
        "kvm_available" : true,
        "qid" : "",
        "disk" : "120G",
        "template" : "qemu-x86",
        "template_params" : 
        {
          "vga" : "cirrus",
          "cpu" : "2",
          "net" : "e1000",
          "audio" : "ac97",
          "memory" : "2048",
          "pointer" : "usb",
          "kvm_enabled" : true
        }
      },
      {
      "id":"os:windows:server:2003", 
      "puids" : [ {"puid": "x-fmt/411"}, {"puid": "fmt/899"}, {"puid": "fmt/900"}],
      "label" : "Windows Server 2003",
      "kvm_available" : true,
      "qid" : "",
      "disk" : "60G",
      "template" : "qemu-x86",
      "template_params" : 
      {
        "vga" : "cirrus",
        "cpu" : "2",
        "net" : "rtl8139",
        "audio" : "ac97",
        "memory" : "2048",
        "pointer" : "usb"
      }
    },
    {
      "id":"os:windows:server:nt40", 
      "puids" : [ {"puid": "x-fmt/411"}, {"puid": "fmt/899"}, {"puid": "fmt/900"}],
      "label" : "Windows Server NT 4.0",
      "kvm_available" : false,
      "qid" : "",
      "disk" : "10G",
      "template" : "qemu-x86",
      "template_params" : 
      {
        "vga" : "cirrus",
        "cpu" : "1",
        "net" : "rtl8139",
        "audio" : "sb16",
        "memory" : "128",
        "pointer" : "lock"
      }
    },

    {
      "id":"os:windows:311", 
      "puids" : [{"puid": "x-fmt/410"}, {"puid": "x-fmt/409"}],
      "label" : "Windows 3.x",
      "kvm_available" : false,
      "qid" : "",
      "disk" : "1G",
      "template" : "qemu-x86",
      "template_params" : 
      {
        "vga" : "cirrus",
        "cpu" : "1",
        "net" : "rtl8139",
        "audio" : "sb16",
        "memory" : "16",
        "pointer" : "lock"
      }
    },

    {
      "id":"os:mac:mk86", 
      "puids" : [{"puid": "x-fmt/416"}],
      "label" : "Apple System 7/8 (M68k)",
      "kvm_available" : false,
      "qid" : "",
      "disk" : "1G",
      "template" : "basiliskII",
      "template_params" : {}
    },

    {
      "id":"os:mac:ppc", 
      "puids" : [{"puid": "bwfla/1"}, {"puid": "x-fmt/416"}],
      "label" : "Apple System 8-9.0.x (PPC)",
      "kvm_available" : false,
      "qid" : "",
      "disk" : "1G",
      "template" : "sheepshaver",
      "template_params" : 
      {
       
      }
    },
    {
      "id":"os:other:amiga-uae", 
      "puids" : [],
      "label" : "Amiga (UAE)",
      "kvm_available" : false,
      "qid" : "",
      "disk" : "20M",
      "template" : "amiga-uae",
      "template_params" : 
      {
        "rom" : "",
        "models" : ["A500", "A500+", "A600", "A1000", "A1200", "A3000", "A4000", "CD32", "CDTV"],
        "chosenModel" : ""
      }
    },
    {
      "id":"os:other:vgba", 
      "puids" : [],
      "label" : "GameBoy Advance",
      "kvm_available" : false,
      "qid" : "",
      "disk" : "",
      "template" : "visualboyadvance",
      "template_params" : 
      { 
      }
    },
    {
      "id":"os:mac:ppc-qemu", 
      "puids" : [{"puid": "bwfla/1"}, {"puid": "x-fmt/416"}],
      "label" : "Apple System 9.1.x - 10.4 (PPC)",
      "kvm_available" : false,
      "qid" : "",
      "disk" : "20G",
      "template" : "qemu-ppc",
      "template_params" : 
      {
        "net" : "sungem",
        "args" : "-M mac99 -prom-env 'auto-boot?=true' -prom-env 'boot-args=-v' -prom-env 'vga-ndrv?=true' -device usb-kbd -g 1024x786x32"
      }
    },
    {
      "id":"os:other:sparc-ss5", 
      "puids" : [],
      "label" : "Sun SPARC Station 5",
      "kvm_available" : false,
      "qid" : "",
      "disk" : "20G",
      "template" : "qemu-sparc",
      "template_params" : 
      {
        "net" : "lance",
        "args" : "-m 32"
      }
    },
    {
      "id":"os:other:chrome-53", 
      "puids" : [],
      "label" : "Browser Chrome 53 (Flash-enabled)",
      "kvm_available" : false,
      "qid" : "",
      "disk" : "",
      "template" : "browser",
      "uiOptions" : {
        "useXpra" : true,
        "xpraEncoding" : "jpeg",
        "useWebRTC" : true
      },
      "template_params" : 
      {
        "url" : null,
        "fullscreen" : false,
        "size" : "1024,768"
      }
    },
    {
      "id":"os:other:chrome-53-fullscreen", 
      "puids" : [],
      "label" : "Browser Chrome 53 (fullscreen-optimized)",
      "kvm_available" : false,
      "qid" : "",
      "disk" : "",
      "template" : "browser",
      "uiOptions" : {
        "useXpra" : true,
        "xpraEncoding" : "jpeg",
        "useWebRTC" : true
      },
      "template_params" : 
      {
        "url" : null,
        "fullscreen" : true,
        "size" : "1024,768"
      }
    },
    {
      "id":"os:linux:cent:77", 
      "puids": [{"puid": "fmt/689"}, {"puid": "fmt/795"}, {"puid": "fmt/794"}, {"puid": "fmt/793"} ],
      "label": "CentOS",
      "kvm_available" : true,
      "qid" : "",
      "disk" : "60G",
      "template" : "qemu-x86",
      "template_params" : 
      {
        "vga" : "cirrus",
        "cpu" : "2",
        "net" : "rtl8139",
        "audio" : "ac97",
        "memory" : "2048",
        "pointer" : "usb"
      }
    },
    {
      "id":"os:linux:ubuntu", 
      "puids": [{"puid": "fmt/689"}, {"puid": "fmt/795"}, {"puid": "fmt/794"}, {"puid": "fmt/793"} ],
      "label": "Debian/Ubuntu",
      "kvm_available" : true,
      "qid" : "",
      "disk" : "60G",
      "template" : "qemu-x86",
      "template_params" : 
      {
        "vga" : "cirrus",
        "cpu" : "1",
        "net" : "rtl8139",
        "audio" : "ac97",
        "memory" : "1024",
        "pointer" : "usb"
      }
    },
    {
      "id":"os:linux:fedora", 
      "puids": [{"puid": "fmt/689"}, {"puid": "fmt/795"}, {"puid": "fmt/794"}, {"puid": "fmt/793"} ],
      "label": "Fedora",
      "kvm_available" : true,
      "qid" : "",
      "disk" : "60G",
      "template" : "qemu-x86",
      "template_params" : 
      {
        "vga" : "cirrus",
        "cpu" : "1",
        "net" : "rtl8139",
        "audio" : "ac97",
        "memory" : "1024",
        "pointer" : "usb"
      }
    },
    {
      "id":"os:other:runtime:2020-02", 
      "puids": [],
      "label": "Generic Container Runtime",
      "kvm_available" : true,
      "qid" : "",
      "disk" : "60G",
      "template" : "runtime",
      "runtime" : true,
      "template_params" : 
      {
        "cpu" : "1",
        "net" : "e1000",
        "memory" : "2048",
        "pointer" : "usb"
      }
    },
    {
      "id":"os:other:runc2",
      "puids": [],
      "label": "Generic Emulator (runc2) (Beta)",
      "kvm_available" : false,
      "qid" : "",
      "disk" : "",
      "template" : "runc2",
      "runtime" : false,
      "template_params" :
      {
      }
    },
    {
      "id":"os:other:pcem",
      "puids": [],
      "label": "PCem",
      "kvm_available" : false,
      "qid" : "",
      "disk" : "",
      "template" : "pcem",
      "runtime" : false,
      "template_params" :
      {
      }    
    },
      {
        "id":"os:other:c64",
        "puids": [],
        "label": "C64 (Vice)",
        "kvm_available" : false,
        "qid" : "",
        "disk" : "",
        "template" : "c64-vice",
        "runtime" : false,
        "template_params" :
        {
        }
      }

  ]
}
